127.0.0.1 - - [01/Aug/2019:09:17:38 +0700] "GET / HTTP/1.1" 404 1074
0:0:0:0:0:0:0:1 - - [01/Aug/2019:09:17:41 +0700] "GET /Demo/ HTTP/1.1" 200 151
192.168.11.251 - - [01/Aug/2019:12:50:09 +0700] "GET / HTTP/1.0" 404 1074
192.168.11.251 - - [01/Aug/2019:12:50:09 +0700] "OPTIONS / HTTP/1.0" 200 -
192.168.11.251 - - [01/Aug/2019:12:50:10 +0700] "OPTIONS / null" 505 2114
192.168.11.251 - - [01/Aug/2019:12:50:10 +0700] "GET /nice%20ports%2C/Tri%6Eity.txt%2ebak HTTP/1.0" 404 1113
192.168.11.251 - - [01/Aug/2019:12:50:10 +0700] "-" 400 2227
192.168.11.251 - - [01/Aug/2019:12:50:10 +0700] "-" 400 2227
192.168.11.251 - - [01/Aug/2019:12:50:15 +0700] "-" 400 2227
192.168.11.251 - - [01/Aug/2019:12:50:15 +0700] "-" 400 2227
192.168.11.251 - - [01/Aug/2019:12:50:15 +0700] "-" 400 2227
192.168.11.251 - - [01/Aug/2019:12:50:15 +0700] "-" 400 2227
192.168.11.251 - - [01/Aug/2019:12:50:15 +0700] "-" 400 2227
192.168.11.251 - - [01/Aug/2019:12:50:15 +0700] "-" 400 2227
192.168.11.251 - - [01/Aug/2019:12:50:15 +0700] "-" 400 2227
192.168.11.251 - - [01/Aug/2019:12:50:15 +0700] "-" 400 2227
192.168.11.251 - - [01/Aug/2019:12:50:15 +0700] "-" 400 2227
192.168.11.251 - - [01/Aug/2019:12:50:15 +0700] "-" 400 2227
192.168.11.251 - - [01/Aug/2019:12:50:15 +0700] "-" 400 2227
192.168.11.251 - - [01/Aug/2019:12:50:15 +0700] "OPTIONS sip:nm null" 400 2138
192.168.11.251 - - [01/Aug/2019:12:50:15 +0700] "-" 400 2227
192.168.11.251 - - [01/Aug/2019:12:50:15 +0700] "-" 400 2227
192.168.11.251 - - [01/Aug/2019:12:50:15 +0700] "-" 400 2227
192.168.11.251 - - [01/Aug/2019:12:50:15 +0700] "-" 400 2227
192.168.11.251 - - [01/Aug/2019:12:50:15 +0700] "-" 400 2227
192.168.11.251 - - [01/Aug/2019:12:50:15 +0700] "-" 400 2227
192.168.11.251 - - [01/Aug/2019:12:50:15 +0700] "-" 400 2227
192.168.11.251 - - [01/Aug/2019:12:50:15 +0700] "-" 400 2227
192.168.11.251 - - [01/Aug/2019:13:21:42 +0700] "GET / HTTP/1.0" 404 1074
192.168.11.251 - - [01/Aug/2019:13:21:42 +0700] "OPTIONS / HTTP/1.0" 200 -
192.168.11.251 - - [01/Aug/2019:13:21:42 +0700] "OPTIONS / null" 505 2114
192.168.11.251 - - [01/Aug/2019:13:21:42 +0700] "GET /nice%20ports%2C/Tri%6Eity.txt%2ebak HTTP/1.0" 404 1113
192.168.11.251 - - [01/Aug/2019:13:21:42 +0700] "-" 400 2227
192.168.11.251 - - [01/Aug/2019:13:21:42 +0700] "-" 400 2227
192.168.11.251 - - [01/Aug/2019:13:21:47 +0700] "-" 400 2227
192.168.11.251 - - [01/Aug/2019:13:21:47 +0700] "-" 400 2227
192.168.11.251 - - [01/Aug/2019:13:21:47 +0700] "-" 400 2227
192.168.11.251 - - [01/Aug/2019:13:21:47 +0700] "-" 400 2227
192.168.11.251 - - [01/Aug/2019:13:21:47 +0700] "-" 400 2227
192.168.11.251 - - [01/Aug/2019:13:21:47 +0700] "-" 400 2227
192.168.11.251 - - [01/Aug/2019:13:21:47 +0700] "-" 400 2227
192.168.11.251 - - [01/Aug/2019:13:21:47 +0700] "-" 400 2227
192.168.11.251 - - [01/Aug/2019:13:21:47 +0700] "-" 400 2227
192.168.11.251 - - [01/Aug/2019:13:21:47 +0700] "-" 400 2227
192.168.11.251 - - [01/Aug/2019:13:21:47 +0700] "-" 400 2227
192.168.11.251 - - [01/Aug/2019:13:21:47 +0700] "OPTIONS sip:nm null" 400 2138
192.168.11.251 - - [01/Aug/2019:13:21:48 +0700] "-" 400 2227
192.168.11.251 - - [01/Aug/2019:13:21:48 +0700] "-" 400 2227
192.168.11.251 - - [01/Aug/2019:13:21:48 +0700] "-" 400 2227
192.168.11.251 - - [01/Aug/2019:13:21:48 +0700] "-" 400 2227
192.168.11.251 - - [01/Aug/2019:13:21:48 +0700] "-" 400 2227
192.168.11.251 - - [01/Aug/2019:13:21:48 +0700] "-" 400 2227
192.168.11.251 - - [01/Aug/2019:13:21:48 +0700] "-" 400 2227
192.168.11.251 - - [01/Aug/2019:13:21:48 +0700] "-" 400 2227
192.168.11.251 - - [01/Aug/2019:13:23:47 +0700] "GET /nmaplowercheck1564640625 HTTP/1.1" 404 1098
192.168.11.251 - - [01/Aug/2019:13:23:47 +0700] "-" 400 2227
192.168.11.251 - - [01/Aug/2019:13:23:47 +0700] "GET /ts/in.cgi?open2 HTTP/1.1" 404 1087
192.168.11.251 - - [01/Aug/2019:13:23:48 +0700] "GET / HTTP/1.1" 404 1074
192.168.11.251 - - [01/Aug/2019:13:51:38 +0700] "GET / HTTP/1.0" 404 1074
192.168.11.251 - - [01/Aug/2019:13:51:38 +0700] "OPTIONS / HTTP/1.0" 200 -
192.168.11.251 - - [01/Aug/2019:13:51:38 +0700] "OPTIONS / null" 505 2114
192.168.11.251 - - [01/Aug/2019:13:51:38 +0700] "GET /nice%20ports%2C/Tri%6Eity.txt%2ebak HTTP/1.0" 404 1113
192.168.11.251 - - [01/Aug/2019:13:51:38 +0700] "-" 400 2227
192.168.11.251 - - [01/Aug/2019:13:51:38 +0700] "-" 400 2227
192.168.11.251 - - [01/Aug/2019:13:51:43 +0700] "-" 400 2227
192.168.11.251 - - [01/Aug/2019:13:51:43 +0700] "-" 400 2227
192.168.11.251 - - [01/Aug/2019:13:51:43 +0700] "-" 400 2227
192.168.11.251 - - [01/Aug/2019:13:51:43 +0700] "-" 400 2227
192.168.11.251 - - [01/Aug/2019:13:51:43 +0700] "-" 400 2227
192.168.11.251 - - [01/Aug/2019:13:51:43 +0700] "-" 400 2227
192.168.11.251 - - [01/Aug/2019:13:51:43 +0700] "-" 400 2227
192.168.11.251 - - [01/Aug/2019:13:51:43 +0700] "-" 400 2227
192.168.11.251 - - [01/Aug/2019:13:51:44 +0700] "-" 400 2227
192.168.11.251 - - [01/Aug/2019:13:51:44 +0700] "-" 400 2227
192.168.11.251 - - [01/Aug/2019:13:51:44 +0700] "-" 400 2227
192.168.11.251 - - [01/Aug/2019:13:51:44 +0700] "OPTIONS sip:nm null" 400 2138
192.168.11.251 - - [01/Aug/2019:13:51:44 +0700] "-" 400 2227
192.168.11.251 - - [01/Aug/2019:13:51:44 +0700] "-" 400 2227
192.168.11.251 - - [01/Aug/2019:13:51:44 +0700] "-" 400 2227
192.168.11.251 - - [01/Aug/2019:13:51:44 +0700] "-" 400 2227
192.168.11.251 - - [01/Aug/2019:13:51:44 +0700] "-" 400 2227
192.168.11.251 - - [01/Aug/2019:13:51:44 +0700] "-" 400 2227
192.168.11.251 - - [01/Aug/2019:13:51:44 +0700] "-" 400 2227
192.168.11.251 - - [01/Aug/2019:13:51:44 +0700] "-" 400 2227
192.168.11.251 - - [01/Aug/2019:13:53:44 +0700] "GET / HTTP/1.1" 404 1074
192.168.11.251 - - [01/Aug/2019:13:53:44 +0700] "-" 400 2227
